{
  "height": 23,
  "duration": 8.792966,
  "stdout": [
    [
      0.437197,
      "\u001b]0;jorge@jorge-All-Series: /tmp/n\u0007jorge@jorge-All-Series:/tmp/n$ "
    ],
    [
      1.233071,
      "l"
    ],
    [
      0.257404,
      "s"
    ],
    [
      0.226202,
      " "
    ],
    [
      0.672511,
      "-"
    ],
    [
      0.225691,
      "-"
    ],
    [
      0.901992,
      "\u0007"
    ],
    [
      0.168704,
      "\r\n--all                                      --format=                                  --quoting-style=\r\n--almost-all                               --group-directories-first                  --recursive\r\n--author                                   --help                                     --reverse\r\n--block-size=                              --hide=                                    --show-control-chars\r\n"
    ],
    [
      2.1e-05,
      "--classify                                 --hide-control-chars                       --si\r\n--color                                    --human-readable                           --size\r\n--color=                                   --ignore=                                  --sort\r\n--context                                  --ignore-backups                           --sort=\r\n--dereference                              --indicator-style=                         --tabsize=\r\n--dereference-command-line                 --inode                                    --time=\r\n--dereference-command-line-symlink-to-dir  --kibibytes                                --time-style=\r\n"
    ],
    [
      1.5e-05,
      "--directory                                --literal                                  --version\r\n--dired                                    --no-group                                 --width=\r\n--escape                                   --numeric-uid-gid                          \r\n"
    ],
    [
      2.2e-05,
      "--file-type                                --quote-name                               \r\n"
    ],
    [
      1e-05,
      "\u001b]0;jorge@jorge-All-Series: /tmp/n\u0007jorge@jorge-All-Series:/tmp/n$ ls --"
    ],
    [
      1.270446,
      "a"
    ],
    [
      0.22571,
      "u"
    ],
    [
      1.034163,
      "thor "
    ],
    [
      0.917279,
      "-"
    ],
    [
      0.449102,
      "l"
    ],
    [
      0.768297,
      "\r\n"
    ],
    [
      0.003339,
      "total 0\r\n"
    ],
    [
      7.4e-05,
      "-rw-rw-r-- 1 jorge jorge jorge 0 ene 22 17:17 file\r\n"
    ],
    [
      0.000529,
      "\u001b]0;jorge@jorge-All-Series: /tmp/n\u0007jorge@jorge-All-Series:/tmp/n$ "
    ]
  ],
  "env": {
    "SHELL": "/bin/bash",
    "TERM": "xterm"
  },
  "title": null,
  "version": 1,
  "width": 161,
  "command": null
}